{
  "page": 1,
  "total_results": 7695,
  "total_pages": 385,
  "results": [{
    "vote_count": 4287,
    "id": 321612,
    "video": false,
    "vote_average": 6.8,
    "title": "Beauty and the Beast",
    "popularity": 142.047831,
    "poster_path": "\/tWqifoYuwLETmmasnGHO7xBjEtt.jpg",
    "original_language": "en",
    "original_title": "Beauty and the Beast",
    "genre_ids": [10751, 14, 10749],
    "backdrop_path": "\/6aUWe0GSl69wMTSWWexsorMIvwU.jpg",
    "adult": false,
    "overview": "A live-action adaptation of Disney's version of the classic 'Beauty and the Beast' tale of a cursed prince and a beautiful young woman who helps him break the spell.",
    "release_date": "2017-03-16"
  }, {
    "vote_count": 1768,
    "id": 315635,
    "video": false,
    "vote_average": 7.4,
    "title": "Spider-Man: Homecoming",
    "popularity": 87.920789,
    "poster_path": "\/c24sv2weTHPsmDa7jEMN0m2P3RT.jpg",
    "original_language": "en",
    "original_title": "Spider-Man: Homecoming",
    "genre_ids": [28, 12, 878],
    "backdrop_path": "\/fn4n6uOYcB6Uh89nbNPoU2w80RV.jpg",
    "adult": false,
    "overview": "Following the events of Captain America: Civil War, Peter Parker, with the help of his mentor Tony Stark, tries to balance his life as an ordinary high school student in Queens, New York City, with fighting crime as his superhero alter ego Spider-Man as a new threat, the Vulture, emerges.",
    "release_date": "2017-07-05"
  }, {
    "vote_count": 960,
    "id": 324852,
    "video": false,
    "vote_average": 6.2,
    "title": "Despicable Me 3",
    "popularity": 87.093304,
    "poster_path": "\/5qcUGqWoWhEsoQwNUrtf3y3fcWn.jpg",
    "original_language": "en",
    "original_title": "Despicable Me 3",
    "genre_ids": [878, 12, 16, 35, 10751],
    "backdrop_path": "\/puV2PFq42VQPItaygizgag8jrXa.jpg",
    "adult": false,
    "overview": "Gru and his wife Lucy must stop former '80s child star Balthazar Bratt from achieving world domination.",
    "release_date": "2017-06-15"
  }, {
    "vote_count": 709,
    "id": 374720,
    "video": false,
    "vote_average": 7.5,
    "title": "Dunkirk",
    "popularity": 77.237451,
    "poster_path": "\/cUqEgoP6kj8ykfNjJx3Tl5zHCcN.jpg",
    "original_language": "en",
    "original_title": "Dunkirk",
    "genre_ids": [28, 18, 36, 53, 10752],
    "backdrop_path": "\/fudEG1VUWuOqleXv6NwCExK0VLy.jpg",
    "adult": false,
    "overview": "Miraculous evacuation of Allied soldiers from Belgium, Britain, Canada, and France, who were cut off and surrounded by the German army from the beaches and harbor of Dunkirk, France, between May 26 and June 04, 1940, during Battle of France in World War II.",
    "release_date": "2017-07-19"
  }, {
    "vote_count": 607,
    "id": 281338,
    "video": false,
    "vote_average": 6.6,
    "title": "War for the Planet of the Apes",
    "popularity": 52.886932,
    "poster_path": "\/y52mjaCLoJJzxfcDDlksKDngiDx.jpg",
    "original_language": "en",
    "original_title": "War for the Planet of the Apes",
    "genre_ids": [18, 878, 10752],
    "backdrop_path": "\/w4ZYFLJbiqZyvCcGHgvaHD6lTqQ.jpg",
    "adult": false,
    "overview": "Caesar and his apes are forced into a deadly conflict with an army of humans led by a ruthless Colonel. After the apes suffer unimaginable losses, Caesar wrestles with his darker instincts and begins his own mythic quest to avenge his kind. As the journey finally brings them face to face, Caesar and the Colonel are pitted against each other in an epic battle that will determine the fate of both their species and the future of the planet.",
    "release_date": "2017-07-11"
  }, {
    "vote_count": 1773,
    "id": 315837,
    "video": false,
    "vote_average": 5.9,
    "title": "Ghost in the Shell",
    "popularity": 43.615903,
    "poster_path": "\/myRzRzCxdfUWjkJWgpHHZ1oGkJd.jpg",
    "original_language": "en",
    "original_title": "Ghost in the Shell",
    "genre_ids": [28, 80, 18, 9648, 878, 53],
    "backdrop_path": "\/jGPSVArC0GS2VVc0aGAqGTjfFOG.jpg",
    "adult": false,
    "overview": "In the near future, Major is the first of her kind: a human saved from a terrible crash, then cyber-enhanced to be a perfect soldier devoted to stopping the world's most dangerous criminals.",
    "release_date": "2017-03-29"
  }, {
    "vote_count": 5064,
    "id": 263115,
    "video": false,
    "vote_average": 7.5,
    "title": "Logan",
    "popularity": 41.573252,
    "poster_path": "\/gGBu0hKw9BGddG8RkRAMX7B6NDB.jpg",
    "original_language": "en",
    "original_title": "Logan",
    "genre_ids": [28, 18, 878],
    "backdrop_path": "\/5pAGnkFYSsFJ99ZxDIYnhQbQFXs.jpg",
    "adult": false,
    "overview": "In the near future, a weary Logan cares for an ailing Professor X in a hideout on the Mexican border. But Logan's attempts to hide from the world and his legacy are upended when a young mutant arrives, pursued by dark forces.",
    "release_date": "2017-02-28"
  }, {
    "vote_count": 2514,
    "id": 293167,
    "video": false,
    "vote_average": 6.1,
    "title": "Kong: Skull Island",
    "popularity": 31.927826,
    "poster_path": "\/r2517Vz9EhDhj88qwbDVj8DCRZN.jpg",
    "original_language": "en",
    "original_title": "Kong: Skull Island",
    "genre_ids": [28, 12, 14],
    "backdrop_path": "\/pGwChWiAY1bdoxL79sXmaFBlYJH.jpg",
    "adult": false,
    "overview": "Explore the mysterious and dangerous home of the king of the apes as a team of explorers ventures deep inside the treacherous, primordial island.",
    "release_date": "2017-03-08"
  }, {
    "vote_count": 2643,
    "id": 283366,
    "video": false,
    "vote_average": 6.5,
    "title": "Miss Peregrine's Home for Peculiar Children",
    "popularity": 26.780891,
    "poster_path": "\/AvekzUdI8HZnImdQulmTTmAZXrC.jpg",
    "original_language": "en",
    "original_title": "Miss Peregrine's Home for Peculiar Children",
    "genre_ids": [18, 14, 12],
    "backdrop_path": "\/9BVHn78oQcFCRd4M3u3NT7OrhTk.jpg",
    "adult": false,
    "overview": "A teenager finds himself transported to an island where he must help protect a group of orphans with special powers from creatures intent on destroying them.",
    "release_date": "2016-09-28"
  }, {
    "vote_count": 54,
    "id": 339692,
    "video": false,
    "vote_average": 6.8,
    "title": "Shot Caller",
    "popularity": 25.741066,
    "poster_path": "\/qLmLz2wtyYvmW8Ult3l2ngOnW8v.jpg",
    "original_language": "en",
    "original_title": "Shot Caller",
    "genre_ids": [18, 80, 53],
    "backdrop_path": "\/eRJMFHOn5jDmfWWPfTs5RflApgW.jpg",
    "adult": false,
    "overview": "A newly released prison gangster is forced by the leaders of his gang to orchestrate a major crime with a brutal rival gang on the streets of Southern California.",
    "release_date": "2017-07-13"
  }, {
    "vote_count": 766,
    "id": 274857,
    "video": false,
    "vote_average": 6.4,
    "title": "King Arthur: Legend of the Sword",
    "popularity": 23.807779,
    "poster_path": "\/5qtySjfuJfOLvVrVXuwNo2BIVPH.jpg",
    "original_language": "en",
    "original_title": "King Arthur: Legend of the Sword",
    "genre_ids": [28, 18, 14],
    "backdrop_path": "\/22eFfWlar6MtXO5qG25TkjLphoj.jpg",
    "adult": false,
    "overview": "When the child Arthur’s father is murdered, Vortigern, Arthur’s uncle, seizes the crown. Robbed of his birthright and with no idea who he truly is, Arthur comes up the hard way in the back alleys of the city. But once he pulls the sword Excalibur from the stone, his life is turned upside down and he is forced to acknowledge his true legacy... whether he likes it or not.",
    "release_date": "2017-04-27"
  }, {
    "vote_count": 705,
    "id": 339403,
    "video": false,
    "vote_average": 6.8,
    "title": "Baby Driver",
    "popularity": 22.969724,
    "poster_path": "\/dN9LbVNNZFITwfaRjl4tmwGWkRg.jpg",
    "original_language": "en",
    "original_title": "Baby Driver",
    "genre_ids": [28, 80],
    "backdrop_path": "\/xWPXlLKSLGUNYzPqxDyhfij7bBi.jpg",
    "adult": false,
    "overview": "After being coerced into working for a crime boss, a young getaway driver finds himself taking part in a heist doomed to fail.",
    "release_date": "2017-06-28"
  }, {
    "vote_count": 234,
    "id": 339964,
    "video": false,
    "vote_average": 6.9,
    "title": "Valerian and the City of a Thousand Planets",
    "popularity": 21.692093,
    "poster_path": "\/8L7FE3bXjN98BcmKANzrL9WwKsK.jpg",
    "original_language": "en",
    "original_title": "Valerian and the City of a Thousand Planets",
    "genre_ids": [12, 878, 28],
    "backdrop_path": "\/o6OhxtsgMurL4h68Uqei0aSPMNr.jpg",
    "adult": false,
    "overview": "In the 28th century, Valerian and Laureline are special operatives charged with keeping order throughout the human territories. On assignment from the Minister of Defense, the two undertake a mission to Alpha, an ever-expanding metropolis where species from across the universe have converged over centuries to share knowledge, intelligence, and cultures. At the center of Alpha is a mysterious dark force which threatens the peaceful existence of the City of a Thousand Planets, and Valerian and Laureline must race to identify the menace and safeguard not just Alpha, but the future of the universe.",
    "release_date": "2017-07-20"
  }, {
    "vote_count": 1716,
    "id": 126889,
    "video": false,
    "vote_average": 5.7,
    "title": "Alien: Covenant",
    "popularity": 21.378192,
    "poster_path": "\/zecMELPbU5YMQpC81Z8ImaaXuf9.jpg",
    "original_language": "en",
    "original_title": "Alien: Covenant",
    "genre_ids": [27, 878, 53],
    "backdrop_path": "\/kMU8trT43p5LFoJ4plIySMOsZ1T.jpg",
    "adult": false,
    "overview": "Bound for a remote planet on the far side of the galaxy, the crew of the colony ship Covenant discovers what they think is an uncharted paradise, but is actually a dark, dangerous world — whose sole inhabitant is the “synthetic” David, survivor of the doomed Prometheus expedition.",
    "release_date": "2017-05-09"
  }, {
    "vote_count": 2236,
    "id": 419430,
    "video": false,
    "vote_average": 7.1,
    "title": "Get Out",
    "popularity": 18.842858,
    "poster_path": "\/1SwAVYpuLj8KsHxllTF8Dt9dSSX.jpg",
    "original_language": "en",
    "original_title": "Get Out",
    "genre_ids": [9648, 53, 27],
    "backdrop_path": "\/bBQHALHRAaaORlPNXv7fNcRXYdx.jpg",
    "adult": false,
    "overview": "Chris and his girlfriend Rose go upstate to visit her parents for the weekend. At first, Chris reads the family's overly accommodating behavior as nervous attempts to deal with their daughter's interracial relationship, but as the weekend progresses, a series of increasingly disturbing discoveries lead him to a truth that he never could have imagined.",
    "release_date": "2017-02-24"
  }, {
    "vote_count": 1428,
    "id": 395992,
    "video": false,
    "vote_average": 6.2,
    "title": "Life",
    "popularity": 18.14881,
    "poster_path": "\/h2mhfbEBGABSHo2vXG1ECMKAJa7.jpg",
    "original_language": "en",
    "original_title": "Life",
    "genre_ids": [27, 878, 53],
    "backdrop_path": "\/hES8wGmkxHa54z7hqUMpw5TIs09.jpg",
    "adult": false,
    "overview": "The six-member crew of the International Space Station is tasked with studying a sample from Mars that may be the first proof of extra-terrestrial life, which proves more intelligent than ever expected.",
    "release_date": "2017-03-23"
  }, {
    "vote_count": 234,
    "id": 348893,
    "video": false,
    "vote_average": 5.6,
    "title": "Boyka: Undisputed IV",
    "popularity": 17.497017,
    "poster_path": "\/mWiqc87iTs1qujxm2Q0NRzGvWSN.jpg",
    "original_language": "en",
    "original_title": "Boyka: Undisputed IV",
    "genre_ids": [28],
    "backdrop_path": "\/5dLLiR8IUT7T0r5HVcvRlItNWTn.jpg",
    "adult": false,
    "overview": "In the fourth installment of the fighting franchise, Boyka is shooting for the big leagues when an accidental death in the ring makes him question everything he stands for. When he finds out the wife of the man he accidentally killed is in trouble, Boyka offers to fight in a series of impossible battles to free her from a life of servitude",
    "release_date": "2017-04-18"
  }, {
    "vote_count": 4650,
    "id": 259316,
    "video": false,
    "vote_average": 7.1,
    "title": "Fantastic Beasts and Where to Find Them",
    "popularity": 17.177991,
    "poster_path": "\/1M91Bt3oGspda75H9eLqYZkJzgO.jpg",
    "original_language": "en",
    "original_title": "Fantastic Beasts and Where to Find Them",
    "genre_ids": [10751, 14],
    "backdrop_path": "\/6I2tPx6KIiBB4TWFiWwNUzrbxUn.jpg",
    "adult": false,
    "overview": "In 1926, Newt Scamander arrives at the Magical Congress of the United States of America with a magically expanded briefcase, which houses a number of dangerous creatures and their habitats. When the creatures escape from the briefcase, it sends the American wizarding authorities after Newt, and threatens to strain even further the state of magical and non-magical relations.",
    "release_date": "2016-11-16"
  }, {
    "vote_count": 3027,
    "id": 283995,
    "video": false,
    "vote_average": 7.6,
    "title": "Guardians of the Galaxy Vol. 2",
    "popularity": 17.172151,
    "poster_path": "\/y4MBh0EjBlMuOzv9axM4qJlmhzz.jpg",
    "original_language": "en",
    "original_title": "Guardians of the Galaxy Vol. 2",
    "genre_ids": [28, 12, 35, 878],
    "backdrop_path": "\/aJn9XeesqsrSLKcHfHP4u5985hn.jpg",
    "adult": false,
    "overview": "The Guardians must fight to keep their newfound family together as they unravel the mysteries of Peter Quill's true parentage.",
    "release_date": "2017-04-19"
  }, {
    "vote_count": 4800,
    "id": 284052,
    "video": false,
    "vote_average": 7.1,
    "title": "Doctor Strange",
    "popularity": 16.952471,
    "poster_path": "\/4PiiNGXj1KENTmCBHeN6Mskj2Fq.jpg",
    "original_language": "en",
    "original_title": "Doctor Strange",
    "genre_ids": [28, 12, 14, 878],
    "backdrop_path": "\/tFI8VLMgSTTU38i8TIsklfqS9Nl.jpg",
    "adult": false,
    "overview": "After his career is destroyed, a brilliant but arrogant surgeon gets a new lease on life when a sorcerer takes him under his wing and trains him to defend the world against evil.",
    "release_date": "2016-10-25"
  }]
}
